{
    "m_SGVersion": 3,
    "m_Type": "UnityEditor.ShaderGraph.GraphData",
    "m_ObjectId": "7a19d8e833c84e65b54dd09630b55fbe",
    "m_Properties": [
        {
            "m_Id": "5a4d00336c674528a694638e37a6bacf"
        },
        {
            "m_Id": "f1934156a3794a9ea641ad442d933447"
        },
        {
            "m_Id": "a91f1889203e4e86b1b62bab44694355"
        },
        {
            "m_Id": "9c5b793b2598400c8976c76ca8d6cdf7"
        },
        {
            "m_Id": "fe4e85961d8e4576b8ec811e6b7515c5"
        },
        {
            "m_Id": "866ee253a0864a7b83255e63f549f19f"
        }
    ],
    "m_Keywords": [],
    "m_Dropdowns": [],
    "m_CategoryData": [
        {
            "m_Id": "d5cf08317d0b4822a742c90644e33ff8"
        }
    ],
    "m_Nodes": [
        {
            "m_Id": "e933b608b7dc4217b02681651cc6b7b2"
        },
        {
            "m_Id": "64822a7679cb4c33afacb0cc6203424f"
        },
        {
            "m_Id": "2c5e1ef5f1984bfb93ea5c25683b3192"
        },
        {
            "m_Id": "a1196f6938ee4c1298192ea2831c28b1"
        },
        {
            "m_Id": "c11833cd3b3f445e83de74644e7cf7a7"
        },
        {
            "m_Id": "ab63c63d9ad94faba6d6d56a2a259dba"
        },
        {
            "m_Id": "b77a9b56ad3b41d1a0e338f08d451c86"
        },
        {
            "m_Id": "cce0122d001c441a8a7a433c493856ca"
        },
        {
            "m_Id": "486e2ca8073f4cf3aaeb074527d387a9"
        },
        {
            "m_Id": "c4d170125011428f8177765ee336c174"
        },
        {
            "m_Id": "4bdb3f63ad594185b3aa1a2c69728372"
        },
        {
            "m_Id": "f01518257c854c379f109c299959bceb"
        },
        {
            "m_Id": "b40d3ee551e4470ba0e5370e306cf12d"
        },
        {
            "m_Id": "3eda2637b6254218b692bb93e05bc464"
        },
        {
            "m_Id": "e854e730d24848efadc0d3e8cad3e2fd"
        },
        {
            "m_Id": "b80dfc1e416d4d30896104455b4da666"
        },
        {
            "m_Id": "8f08d98560124314aaaecec2120e5421"
        },
        {
            "m_Id": "79ad33163aa14ab293f3ce1b85630d29"
        },
        {
            "m_Id": "6ec5ffeb0b83489cb79359c385bd3875"
        },
        {
            "m_Id": "a6b4a6ffb458429a97ec32a25cfebaaa"
        },
        {
            "m_Id": "345f69a936dc4a62ae89a66859794933"
        },
        {
            "m_Id": "c6fb7eb09da54aa2b9999efb4047587e"
        },
        {
            "m_Id": "cace906b823640bbb871832253d3e933"
        },
        {
            "m_Id": "c38c070a3a5d4ba18e18bf6b8c231a0a"
        }
    ],
    "m_GroupDatas": [],
    "m_StickyNoteDatas": [],
    "m_Edges": [
        {
            "m_OutputSlot": {
                "m_Node": {
                    "m_Id": "345f69a936dc4a62ae89a66859794933"
                },
                "m_SlotId": 0
            },
            "m_InputSlot": {
                "m_Node": {
                    "m_Id": "c6fb7eb09da54aa2b9999efb4047587e"
                },
                "m_SlotId": -845122208
            }
        },
        {
            "m_OutputSlot": {
                "m_Node": {
                    "m_Id": "345f69a936dc4a62ae89a66859794933"
                },
                "m_SlotId": 0
            },
            "m_InputSlot": {
                "m_Node": {
                    "m_Id": "cace906b823640bbb871832253d3e933"
                },
                "m_SlotId": 0
            }
        },
        {
            "m_OutputSlot": {
                "m_Node": {
                    "m_Id": "3eda2637b6254218b692bb93e05bc464"
                },
                "m_SlotId": 0
            },
            "m_InputSlot": {
                "m_Node": {
                    "m_Id": "4bdb3f63ad594185b3aa1a2c69728372"
                },
                "m_SlotId": 0
            }
        },
        {
            "m_OutputSlot": {
                "m_Node": {
                    "m_Id": "486e2ca8073f4cf3aaeb074527d387a9"
                },
                "m_SlotId": 2
            },
            "m_InputSlot": {
                "m_Node": {
                    "m_Id": "b77a9b56ad3b41d1a0e338f08d451c86"
                },
                "m_SlotId": 2
            }
        },
        {
            "m_OutputSlot": {
                "m_Node": {
                    "m_Id": "4bdb3f63ad594185b3aa1a2c69728372"
                },
                "m_SlotId": 2
            },
            "m_InputSlot": {
                "m_Node": {
                    "m_Id": "b77a9b56ad3b41d1a0e338f08d451c86"
                },
                "m_SlotId": 1
            }
        },
        {
            "m_OutputSlot": {
                "m_Node": {
                    "m_Id": "6ec5ffeb0b83489cb79359c385bd3875"
                },
                "m_SlotId": 1
            },
            "m_InputSlot": {
                "m_Node": {
                    "m_Id": "8f08d98560124314aaaecec2120e5421"
                },
                "m_SlotId": 0
            }
        },
        {
            "m_OutputSlot": {
                "m_Node": {
                    "m_Id": "6ec5ffeb0b83489cb79359c385bd3875"
                },
                "m_SlotId": 1
            },
            "m_InputSlot": {
                "m_Node": {
                    "m_Id": "8f08d98560124314aaaecec2120e5421"
                },
                "m_SlotId": 2
            }
        },
        {
            "m_OutputSlot": {
                "m_Node": {
                    "m_Id": "79ad33163aa14ab293f3ce1b85630d29"
                },
                "m_SlotId": 1
            },
            "m_InputSlot": {
                "m_Node": {
                    "m_Id": "c38c070a3a5d4ba18e18bf6b8c231a0a"
                },
                "m_SlotId": 1
            }
        },
        {
            "m_OutputSlot": {
                "m_Node": {
                    "m_Id": "8f08d98560124314aaaecec2120e5421"
                },
                "m_SlotId": 4
            },
            "m_InputSlot": {
                "m_Node": {
                    "m_Id": "79ad33163aa14ab293f3ce1b85630d29"
                },
                "m_SlotId": 0
            }
        },
        {
            "m_OutputSlot": {
                "m_Node": {
                    "m_Id": "a6b4a6ffb458429a97ec32a25cfebaaa"
                },
                "m_SlotId": 0
            },
            "m_InputSlot": {
                "m_Node": {
                    "m_Id": "8f08d98560124314aaaecec2120e5421"
                },
                "m_SlotId": 3
            }
        },
        {
            "m_OutputSlot": {
                "m_Node": {
                    "m_Id": "ab63c63d9ad94faba6d6d56a2a259dba"
                },
                "m_SlotId": 7
            },
            "m_InputSlot": {
                "m_Node": {
                    "m_Id": "8f08d98560124314aaaecec2120e5421"
                },
                "m_SlotId": 1
            }
        },
        {
            "m_OutputSlot": {
                "m_Node": {
                    "m_Id": "ab63c63d9ad94faba6d6d56a2a259dba"
                },
                "m_SlotId": 7
            },
            "m_InputSlot": {
                "m_Node": {
                    "m_Id": "e854e730d24848efadc0d3e8cad3e2fd"
                },
                "m_SlotId": 1
            }
        },
        {
            "m_OutputSlot": {
                "m_Node": {
                    "m_Id": "b40d3ee551e4470ba0e5370e306cf12d"
                },
                "m_SlotId": 0
            },
            "m_InputSlot": {
                "m_Node": {
                    "m_Id": "486e2ca8073f4cf3aaeb074527d387a9"
                },
                "m_SlotId": 0
            }
        },
        {
            "m_OutputSlot": {
                "m_Node": {
                    "m_Id": "b77a9b56ad3b41d1a0e338f08d451c86"
                },
                "m_SlotId": 3
            },
            "m_InputSlot": {
                "m_Node": {
                    "m_Id": "ab63c63d9ad94faba6d6d56a2a259dba"
                },
                "m_SlotId": 2
            }
        },
        {
            "m_OutputSlot": {
                "m_Node": {
                    "m_Id": "b80dfc1e416d4d30896104455b4da666"
                },
                "m_SlotId": 0
            },
            "m_InputSlot": {
                "m_Node": {
                    "m_Id": "6ec5ffeb0b83489cb79359c385bd3875"
                },
                "m_SlotId": 0
            }
        },
        {
            "m_OutputSlot": {
                "m_Node": {
                    "m_Id": "c38c070a3a5d4ba18e18bf6b8c231a0a"
                },
                "m_SlotId": 2
            },
            "m_InputSlot": {
                "m_Node": {
                    "m_Id": "c11833cd3b3f445e83de74644e7cf7a7"
                },
                "m_SlotId": 0
            }
        },
        {
            "m_OutputSlot": {
                "m_Node": {
                    "m_Id": "c4d170125011428f8177765ee336c174"
                },
                "m_SlotId": 0
            },
            "m_InputSlot": {
                "m_Node": {
                    "m_Id": "486e2ca8073f4cf3aaeb074527d387a9"
                },
                "m_SlotId": 1
            }
        },
        {
            "m_OutputSlot": {
                "m_Node": {
                    "m_Id": "c4d170125011428f8177765ee336c174"
                },
                "m_SlotId": 0
            },
            "m_InputSlot": {
                "m_Node": {
                    "m_Id": "4bdb3f63ad594185b3aa1a2c69728372"
                },
                "m_SlotId": 1
            }
        },
        {
            "m_OutputSlot": {
                "m_Node": {
                    "m_Id": "c6fb7eb09da54aa2b9999efb4047587e"
                },
                "m_SlotId": 0
            },
            "m_InputSlot": {
                "m_Node": {
                    "m_Id": "e854e730d24848efadc0d3e8cad3e2fd"
                },
                "m_SlotId": 0
            }
        },
        {
            "m_OutputSlot": {
                "m_Node": {
                    "m_Id": "cace906b823640bbb871832253d3e933"
                },
                "m_SlotId": 4
            },
            "m_InputSlot": {
                "m_Node": {
                    "m_Id": "c38c070a3a5d4ba18e18bf6b8c231a0a"
                },
                "m_SlotId": 0
            }
        },
        {
            "m_OutputSlot": {
                "m_Node": {
                    "m_Id": "cce0122d001c441a8a7a433c493856ca"
                },
                "m_SlotId": 0
            },
            "m_InputSlot": {
                "m_Node": {
                    "m_Id": "c4d170125011428f8177765ee336c174"
                },
                "m_SlotId": 1
            }
        },
        {
            "m_OutputSlot": {
                "m_Node": {
                    "m_Id": "cce0122d001c441a8a7a433c493856ca"
                },
                "m_SlotId": 2
            },
            "m_InputSlot": {
                "m_Node": {
                    "m_Id": "c4d170125011428f8177765ee336c174"
                },
                "m_SlotId": 2
            }
        },
        {
            "m_OutputSlot": {
                "m_Node": {
                    "m_Id": "e854e730d24848efadc0d3e8cad3e2fd"
                },
                "m_SlotId": 2
            },
            "m_InputSlot": {
                "m_Node": {
                    "m_Id": "e933b608b7dc4217b02681651cc6b7b2"
                },
                "m_SlotId": 0
            }
        },
        {
            "m_OutputSlot": {
                "m_Node": {
                    "m_Id": "f01518257c854c379f109c299959bceb"
                },
                "m_SlotId": 0
            },
            "m_InputSlot": {
                "m_Node": {
                    "m_Id": "ab63c63d9ad94faba6d6d56a2a259dba"
                },
                "m_SlotId": 1
            }
        },
        {
            "m_OutputSlot": {
                "m_Node": {
                    "m_Id": "f01518257c854c379f109c299959bceb"
                },
                "m_SlotId": 0
            },
            "m_InputSlot": {
                "m_Node": {
                    "m_Id": "cce0122d001c441a8a7a433c493856ca"
                },
                "m_SlotId": 1
            }
        }
    ],
    "m_VertexContext": {
        "m_Position": {
            "x": 3278.0,
            "y": 2102.0
        },
        "m_Blocks": [
            {
                "m_Id": "64822a7679cb4c33afacb0cc6203424f"
            },
            {
                "m_Id": "2c5e1ef5f1984bfb93ea5c25683b3192"
            },
            {
                "m_Id": "a1196f6938ee4c1298192ea2831c28b1"
            }
        ]
    },
    "m_FragmentContext": {
        "m_Position": {
            "x": 3278.0,
            "y": 2304.66650390625
        },
        "m_Blocks": [
            {
                "m_Id": "e933b608b7dc4217b02681651cc6b7b2"
            },
            {
                "m_Id": "c11833cd3b3f445e83de74644e7cf7a7"
            }
        ]
    },
    "m_PreviewData": {
        "serializedMesh": {
            "m_SerializedMesh": "{\"mesh\":{\"fileID\":10210,\"guid\":\"0000000000000000e000000000000000\",\"type\":0}}",
            "m_Guid": ""
        },
        "preventRotation": false
    },
    "m_Path": "Shader Graphs",
    "m_GraphPrecision": 1,
    "m_PreviewMode": 2,
    "m_OutputNode": {
        "m_Id": ""
    },
    "m_ActiveTargets": [
        {
            "m_Id": "c789d3a32ad14b109215a5a5d39f6ff5"
        }
    ]
}

{
    "m_SGVersion": 0,
    "m_Type": "UnityEditor.ShaderGraph.Vector1MaterialSlot",
    "m_ObjectId": "0155cbcd55084b51abd7115327cb1b4c",
    "m_Id": 4,
    "m_DisplayName": "R",
    "m_SlotType": 1,
    "m_Hidden": false,
    "m_ShaderOutputName": "R",
    "m_StageCapability": 2,
    "m_Value": 0.0,
    "m_DefaultValue": 0.0,
    "m_Labels": []
}

{
    "m_SGVersion": 0,
    "m_Type": "UnityEditor.ShaderGraph.Vector3MaterialSlot",
    "m_ObjectId": "08acdd5a65c641af8ad682d2162eb915",
    "m_Id": 0,
    "m_DisplayName": "color",
    "m_SlotType": 1,
    "m_Hidden": false,
    "m_ShaderOutputName": "color",
    "m_StageCapability": 2,
    "m_Value": {
        "x": 0.0,
        "y": 0.0,
        "z": 0.0
    },
    "m_DefaultValue": {
        "x": 0.0,
        "y": 0.0,
        "z": 0.0
    },
    "m_Labels": []
}

{
    "m_SGVersion": 0,
    "m_Type": "UnityEditor.ShaderGraph.DynamicVectorMaterialSlot",
    "m_ObjectId": "098ec8ec8a134559a5fb6118d0f7f4e7",
    "m_Id": 0,
    "m_DisplayName": "A",
    "m_SlotType": 0,
    "m_Hidden": false,
    "m_ShaderOutputName": "A",
    "m_StageCapability": 3,
    "m_Value": {
        "x": 0.0,
        "y": 0.0,
        "z": 0.0,
        "w": 0.0
    },
    "m_DefaultValue": {
        "x": 0.0,
        "y": 0.0,
        "z": 0.0,
        "w": 0.0
    }
}

{
    "m_SGVersion": 0,
    "m_Type": "UnityEditor.ShaderGraph.DynamicVectorMaterialSlot",
    "m_ObjectId": "0a585dc7d2fd4600b3ee77287543fa6a",
    "m_Id": 0,
    "m_DisplayName": "A",
    "m_SlotType": 0,
    "m_Hidden": false,
    "m_ShaderOutputName": "A",
    "m_StageCapability": 3,
    "m_Value": {
        "x": 0.0,
        "y": 0.0,
        "z": 0.0,
        "w": 0.0
    },
    "m_DefaultValue": {
        "x": 0.0,
        "y": 0.0,
        "z": 0.0,
        "w": 0.0
    }
}

{
    "m_SGVersion": 0,
    "m_Type": "UnityEditor.ShaderGraph.Vector1MaterialSlot",
    "m_ObjectId": "11659ce5a0754c569c5001821d82eb6d",
    "m_Id": 3,
    "m_DisplayName": "Hardness",
    "m_SlotType": 0,
    "m_Hidden": false,
    "m_ShaderOutputName": "Hardness",
    "m_StageCapability": 3,
    "m_Value": 1.0,
    "m_DefaultValue": 0.800000011920929,
    "m_Labels": []
}

{
    "m_SGVersion": 0,
    "m_Type": "UnityEditor.ShaderGraph.Vector1MaterialSlot",
    "m_ObjectId": "151f32d02f0c4cb396796000788bc406",
    "m_Id": 1,
    "m_DisplayName": "X",
    "m_SlotType": 0,
    "m_Hidden": false,
    "m_ShaderOutputName": "X",
    "m_StageCapability": 3,
    "m_Value": 0.0,
    "m_DefaultValue": 0.0,
    "m_Labels": []
}

{
    "m_SGVersion": 0,
    "m_Type": "UnityEditor.ShaderGraph.Vector2MaterialSlot",
    "m_ObjectId": "15397751fc31440d9928a2b1e3c886c9",
    "m_Id": 2,
    "m_DisplayName": "Offset",
    "m_SlotType": 0,
    "m_Hidden": false,
    "m_ShaderOutputName": "Offset",
    "m_StageCapability": 3,
    "m_Value": {
        "x": 251.0,
        "y": 0.0
    },
    "m_DefaultValue": {
        "x": 0.0,
        "y": 0.0
    },
    "m_Labels": []
}

{
    "m_SGVersion": 0,
    "m_Type": "UnityEditor.ShaderGraph.DynamicVectorMaterialSlot",
    "m_ObjectId": "17c8e4839c454843a6fa4c5bc7212a1c",
    "m_Id": 1,
    "m_DisplayName": "Out",
    "m_SlotType": 1,
    "m_Hidden": false,
    "m_ShaderOutputName": "Out",
    "m_StageCapability": 3,
    "m_Value": {
        "x": 0.0,
        "y": 0.0,
        "z": 0.0,
        "w": 0.0
    },
    "m_DefaultValue": {
        "x": 0.0,
        "y": 0.0,
        "z": 0.0,
        "w": 0.0
    }
}

{
    "m_SGVersion": 0,
    "m_Type": "UnityEditor.ShaderGraph.Vector2MaterialSlot",
    "m_ObjectId": "1f942bfd609241d5a342275476e4a3de",
    "m_Id": 1,
    "m_DisplayName": "Tiling",
    "m_SlotType": 0,
    "m_Hidden": false,
    "m_ShaderOutputName": "Tiling",
    "m_StageCapability": 3,
    "m_Value": {
        "x": 67.0,
        "y": 85.0
    },
    "m_DefaultValue": {
        "x": 0.0,
        "y": 0.0
    },
    "m_Labels": []
}

{
    "m_SGVersion": 0,
    "m_Type": "UnityEditor.ShaderGraph.TangentMaterialSlot",
    "m_ObjectId": "24bdfba492b34489bdb637109b2a18bc",
    "m_Id": 0,
    "m_DisplayName": "Tangent",
    "m_SlotType": 0,
    "m_Hidden": false,
    "m_ShaderOutputName": "Tangent",
    "m_StageCapability": 1,
    "m_Value": {
        "x": 0.0,
        "y": 0.0,
        "z": 0.0
    },
    "m_DefaultValue": {
        "x": 0.0,
        "y": 0.0,
        "z": 0.0
    },
    "m_Labels": [],
    "m_Space": 0
}

{
    "m_SGVersion": 0,
    "m_Type": "UnityEditor.ShaderGraph.BlockNode",
    "m_ObjectId": "2c5e1ef5f1984bfb93ea5c25683b3192",
    "m_Group": {
        "m_Id": ""
    },
    "m_Name": "VertexDescription.Normal",
    "m_DrawState": {
        "m_Expanded": true,
        "m_Position": {
            "serializedVersion": "2",
            "x": 0.0,
            "y": 0.0,
            "width": 0.0,
            "height": 0.0
        }
    },
    "m_Slots": [
        {
            "m_Id": "a086ff5bf93245cea234a07de3084d22"
        }
    ],
    "synonyms": [],
    "m_Precision": 0,
    "m_PreviewExpanded": true,
    "m_DismissedVersion": 0,
    "m_PreviewMode": 0,
    "m_CustomColors": {
        "m_SerializableColors": []
    },
    "m_SerializedDescriptor": "VertexDescription.Normal"
}

{
    "m_SGVersion": 0,
    "m_Type": "UnityEditor.ShaderGraph.Vector2MaterialSlot",
    "m_ObjectId": "2e52a0b72659433a8bcbb2d7f710948b",
    "m_Id": 3,
    "m_DisplayName": "Out",
    "m_SlotType": 1,
    "m_Hidden": false,
    "m_ShaderOutputName": "Out",
    "m_StageCapability": 3,
    "m_Value": {
        "x": 0.0,
        "y": 0.0
    },
    "m_DefaultValue": {
        "x": 0.0,
        "y": 0.0
    },
    "m_Labels": []
}

{
    "m_SGVersion": 0,
    "m_Type": "UnityEditor.ShaderGraph.Vector1MaterialSlot",
    "m_ObjectId": "303d70805ca7417991f8d973f2298d5a",
    "m_Id": 0,
    "m_DisplayName": "thickness",
    "m_SlotType": 1,
    "m_Hidden": false,
    "m_ShaderOutputName": "Out",
    "m_StageCapability": 3,
    "m_Value": 0.0,
    "m_DefaultValue": 0.0,
    "m_Labels": []
}

{
    "m_SGVersion": 0,
    "m_Type": "UnityEditor.ShaderGraph.PropertyNode",
    "m_ObjectId": "345f69a936dc4a62ae89a66859794933",
    "m_Group": {
        "m_Id": ""
    },
    "m_Name": "Property",
    "m_DrawState": {
        "m_Expanded": true,
        "m_Position": {
            "serializedVersion": "2",
            "x": 1656.0,
            "y": 1570.666748046875,
            "width": 0.0,
            "height": 0.0
        }
    },
    "m_Slots": [
        {
            "m_Id": "789b140922fb4a20ab9ff938eb0004d2"
        }
    ],
    "synonyms": [],
    "m_Precision": 0,
    "m_PreviewExpanded": true,
    "m_DismissedVersion": 0,
    "m_PreviewMode": 0,
    "m_CustomColors": {
        "m_SerializableColors": []
    },
    "m_Property": {
        "m_Id": "866ee253a0864a7b83255e63f549f19f"
    }
}

{
    "m_SGVersion": 0,
    "m_Type": "UnityEditor.ShaderGraph.ColorRGBMaterialSlot",
    "m_ObjectId": "38de52233f0d4726977fe59fab15d7ea",
    "m_Id": 0,
    "m_DisplayName": "Base Color",
    "m_SlotType": 0,
    "m_Hidden": false,
    "m_ShaderOutputName": "BaseColor",
    "m_StageCapability": 2,
    "m_Value": {
        "x": 1.0,
        "y": 1.0,
        "z": 1.0
    },
    "m_DefaultValue": {
        "x": 0.0,
        "y": 0.0,
        "z": 0.0
    },
    "m_Labels": [],
    "m_ColorMode": 0,
    "m_DefaultColor": {
        "r": 0.5,
        "g": 0.5,
        "b": 0.5,
        "a": 1.0
    }
}

{
    "m_SGVersion": 0,
    "m_Type": "UnityEditor.ShaderGraph.Texture2DInputMaterialSlot",
    "m_ObjectId": "39be395d8442472badf6352c487e2dde",
    "m_Id": 1,
    "m_DisplayName": "Texture",
    "m_SlotType": 0,
    "m_Hidden": false,
    "m_ShaderOutputName": "Texture",
    "m_StageCapability": 3,
    "m_BareResource": false,
    "m_Texture": {
        "m_SerializedTexture": "{\"texture\":{\"instanceID\":0}}",
        "m_Guid": ""
    },
    "m_DefaultType": 0
}

{
    "m_SGVersion": 0,
    "m_Type": "UnityEditor.ShaderGraph.DynamicVectorMaterialSlot",
    "m_ObjectId": "3a3bdb3554f44c6fad77aa58b95389f1",
    "m_Id": 2,
    "m_DisplayName": "Out",
    "m_SlotType": 1,
    "m_Hidden": false,
    "m_ShaderOutputName": "Out",
    "m_StageCapability": 3,
    "m_Value": {
        "x": 0.0,
        "y": 0.0,
        "z": 0.0,
        "w": 0.0
    },
    "m_DefaultValue": {
        "x": 0.0,
        "y": 0.0,
        "z": 0.0,
        "w": 0.0
    }
}

{
    "m_SGVersion": 0,
    "m_Type": "UnityEditor.ShaderGraph.PropertyNode",
    "m_ObjectId": "3eda2637b6254218b692bb93e05bc464",
    "m_Group": {
        "m_Id": ""
    },
    "m_Name": "Property",
    "m_DrawState": {
        "m_Expanded": true,
        "m_Position": {
            "serializedVersion": "2",
            "x": 666.0,
            "y": 2229.333251953125,
            "width": 164.0,
            "height": 36.0
        }
    },
    "m_Slots": [
        {
            "m_Id": "7b8dc15d630b4b90aed1202eaee91818"
        }
    ],
    "synonyms": [],
    "m_Precision": 0,
    "m_PreviewExpanded": true,
    "m_DismissedVersion": 0,
    "m_PreviewMode": 0,
    "m_CustomColors": {
        "m_SerializableColors": []
    },
    "m_Property": {
        "m_Id": "5a4d00336c674528a694638e37a6bacf"
    }
}

{
    "m_SGVersion": 0,
    "m_Type": "UnityEditor.ShaderGraph.DynamicVectorMaterialSlot",
    "m_ObjectId": "466020e2751a43b5a983c48fa35acec7",
    "m_Id": 1,
    "m_DisplayName": "B",
    "m_SlotType": 0,
    "m_Hidden": false,
    "m_ShaderOutputName": "B",
    "m_StageCapability": 3,
    "m_Value": {
        "x": 2.0,
        "y": 2.0,
        "z": 2.0,
        "w": 2.0
    },
    "m_DefaultValue": {
        "x": 0.0,
        "y": 0.0,
        "z": 0.0,
        "w": 0.0
    }
}

{
    "m_SGVersion": 0,
    "m_Type": "UnityEditor.ShaderGraph.DivideNode",
    "m_ObjectId": "486e2ca8073f4cf3aaeb074527d387a9",
    "m_Group": {
        "m_Id": ""
    },
    "m_Name": "Divide",
    "m_DrawState": {
        "m_Expanded": true,
        "m_Position": {
            "serializedVersion": "2",
            "x": 858.0,
            "y": 2759.333251953125,
            "width": 209.3333740234375,
            "height": 304.0
        }
    },
    "m_Slots": [
        {
            "m_Id": "098ec8ec8a134559a5fb6118d0f7f4e7"
        },
        {
            "m_Id": "87156f66bfb24c78aac05460a6335acf"
        },
        {
            "m_Id": "3a3bdb3554f44c6fad77aa58b95389f1"
        }
    ],
    "synonyms": [
        "division",
        "divided by"
    ],
    "m_Precision": 0,
    "m_PreviewExpanded": true,
    "m_DismissedVersion": 0,
    "m_PreviewMode": 0,
    "m_CustomColors": {
        "m_SerializableColors": []
    }
}

{
    "m_SGVersion": 0,
    "m_Type": "UnityEditor.ShaderGraph.DynamicVectorMaterialSlot",
    "m_ObjectId": "4bbc69e9a070444b9bfdbe6d3ca68409",
    "m_Id": 1,
    "m_DisplayName": "Out",
    "m_SlotType": 1,
    "m_Hidden": false,
    "m_ShaderOutputName": "Out",
    "m_StageCapability": 3,
    "m_Value": {
        "x": 0.0,
        "y": 0.0,
        "z": 0.0,
        "w": 0.0
    },
    "m_DefaultValue": {
        "x": 0.0,
        "y": 0.0,
        "z": 0.0,
        "w": 0.0
    }
}

{
    "m_SGVersion": 0,
    "m_Type": "UnityEditor.ShaderGraph.DivideNode",
    "m_ObjectId": "4bdb3f63ad594185b3aa1a2c69728372",
    "m_Group": {
        "m_Id": ""
    },
    "m_Name": "Divide",
    "m_DrawState": {
        "m_Expanded": true,
        "m_Position": {
            "serializedVersion": "2",
            "x": 858.0,
            "y": 2306.0,
            "width": 209.3333740234375,
            "height": 304.0
        }
    },
    "m_Slots": [
        {
            "m_Id": "0a585dc7d2fd4600b3ee77287543fa6a"
        },
        {
            "m_Id": "466020e2751a43b5a983c48fa35acec7"
        },
        {
            "m_Id": "eb8cf4ce48fe411c9bd4a633416c4c54"
        }
    ],
    "synonyms": [
        "division",
        "divided by"
    ],
    "m_Precision": 0,
    "m_PreviewExpanded": true,
    "m_DismissedVersion": 0,
    "m_PreviewMode": 0,
    "m_CustomColors": {
        "m_SerializableColors": []
    }
}

{
    "m_SGVersion": 0,
    "m_Type": "UnityEditor.ShaderGraph.Vector1MaterialSlot",
    "m_ObjectId": "4c53c06ce0d7430db319d534e33f4516",
    "m_Id": 2,
    "m_DisplayName": "Y",
    "m_SlotType": 0,
    "m_Hidden": false,
    "m_ShaderOutputName": "Y",
    "m_StageCapability": 3,
    "m_Value": 0.0,
    "m_DefaultValue": 0.0,
    "m_Labels": [
        "Y"
    ]
}

{
    "m_SGVersion": 0,
    "m_Type": "UnityEditor.ShaderGraph.DynamicValueMaterialSlot",
    "m_ObjectId": "4f8c0e6287184fa585d4873c57f6947a",
    "m_Id": 1,
    "m_DisplayName": "B",
    "m_SlotType": 0,
    "m_Hidden": false,
    "m_ShaderOutputName": "B",
    "m_StageCapability": 3,
    "m_Value": {
        "e00": 2.0,
        "e01": 2.0,
        "e02": 2.0,
        "e03": 2.0,
        "e10": 2.0,
        "e11": 2.0,
        "e12": 2.0,
        "e13": 2.0,
        "e20": 2.0,
        "e21": 2.0,
        "e22": 2.0,
        "e23": 2.0,
        "e30": 2.0,
        "e31": 2.0,
        "e32": 2.0,
        "e33": 2.0
    },
    "m_DefaultValue": {
        "e00": 1.0,
        "e01": 0.0,
        "e02": 0.0,
        "e03": 0.0,
        "e10": 0.0,
        "e11": 1.0,
        "e12": 0.0,
        "e13": 0.0,
        "e20": 0.0,
        "e21": 0.0,
        "e22": 1.0,
        "e23": 0.0,
        "e30": 0.0,
        "e31": 0.0,
        "e32": 0.0,
        "e33": 1.0
    }
}

{
    "m_SGVersion": 0,
    "m_Type": "UnityEditor.ShaderGraph.Vector2MaterialSlot",
    "m_ObjectId": "51d58bdc6cd34fe4b267e330524693de",
    "m_Id": 0,
    "m_DisplayName": "glyphPositionInAtlas",
    "m_SlotType": 1,
    "m_Hidden": false,
    "m_ShaderOutputName": "Out",
    "m_StageCapability": 3,
    "m_Value": {
        "x": 0.0,
        "y": 0.0
    },
    "m_DefaultValue": {
        "x": 0.0,
        "y": 0.0
    },
    "m_Labels": []
}

{
    "m_SGVersion": 0,
    "m_Type": "UnityEditor.ShaderGraph.SamplerStateMaterialSlot",
    "m_ObjectId": "54ec30b0bb2c498f8f6003ca6525085b",
    "m_Id": 3,
    "m_DisplayName": "Sampler",
    "m_SlotType": 0,
    "m_Hidden": false,
    "m_ShaderOutputName": "Sampler",
    "m_StageCapability": 3,
    "m_BareResource": false
}

{
    "m_SGVersion": 0,
    "m_Type": "UnityEditor.ShaderGraph.Vector1MaterialSlot",
    "m_ObjectId": "5a2de8397f0340a59c23ca4e4f0a3b33",
    "m_Id": 0,
    "m_DisplayName": "hardness",
    "m_SlotType": 1,
    "m_Hidden": false,
    "m_ShaderOutputName": "Out",
    "m_StageCapability": 3,
    "m_Value": 0.0,
    "m_DefaultValue": 0.0,
    "m_Labels": []
}

{
    "m_SGVersion": 1,
    "m_Type": "UnityEditor.ShaderGraph.Internal.Vector2ShaderProperty",
    "m_ObjectId": "5a4d00336c674528a694638e37a6bacf",
    "m_Guid": {
        "m_GuidSerialized": "7267fd33-d76c-4b80-8470-b9787b4425c6"
    },
    "m_Name": "glyphSizeInAtlas",
    "m_DefaultRefNameVersion": 1,
    "m_RefNameGeneratedByDisplayName": "glyphSizeInAtlas",
    "m_DefaultReferenceName": "_glyphSizeInAtlas",
    "m_OverrideReferenceName": "",
    "m_GeneratePropertyBlock": true,
    "m_UseCustomSlotLabel": false,
    "m_CustomSlotLabel": "",
    "m_DismissedVersion": 0,
    "m_Precision": 0,
    "overrideHLSLDeclaration": false,
    "hlslDeclarationOverride": 0,
    "m_Hidden": false,
    "m_Value": {
        "x": 0.0,
        "y": 0.0,
        "z": 0.0,
        "w": 0.0
    }
}

{
    "m_SGVersion": 0,
    "m_Type": "UnityEditor.ShaderGraph.Vector1MaterialSlot",
    "m_ObjectId": "5ce7d27d2c184971a31f04631fd3de3a",
    "m_Id": 2,
    "m_DisplayName": "Height",
    "m_SlotType": 1,
    "m_Hidden": false,
    "m_ShaderOutputName": "Height",
    "m_StageCapability": 3,
    "m_Value": 0.0,
    "m_DefaultValue": 0.0,
    "m_Labels": []
}

{
    "m_SGVersion": 0,
    "m_Type": "UnityEditor.ShaderGraph.BlockNode",
    "m_ObjectId": "64822a7679cb4c33afacb0cc6203424f",
    "m_Group": {
        "m_Id": ""
    },
    "m_Name": "VertexDescription.Position",
    "m_DrawState": {
        "m_Expanded": true,
        "m_Position": {
            "serializedVersion": "2",
            "x": 0.0,
            "y": 0.0,
            "width": 0.0,
            "height": 0.0
        }
    },
    "m_Slots": [
        {
            "m_Id": "b01f5d48022f47cc81cdbccdce89424e"
        }
    ],
    "synonyms": [],
    "m_Precision": 0,
    "m_PreviewExpanded": true,
    "m_DismissedVersion": 0,
    "m_PreviewMode": 0,
    "m_CustomColors": {
        "m_SerializableColors": []
    },
    "m_SerializedDescriptor": "VertexDescription.Position"
}

{
    "m_SGVersion": 0,
    "m_Type": "UnityEditor.ShaderGraph.DynamicVectorMaterialSlot",
    "m_ObjectId": "68414b54c9124292a11fe46813630656",
    "m_Id": 0,
    "m_DisplayName": "In",
    "m_SlotType": 0,
    "m_Hidden": false,
    "m_ShaderOutputName": "In",
    "m_StageCapability": 3,
    "m_Value": {
        "x": 1.0,
        "y": 1.0,
        "z": 1.0,
        "w": 1.0
    },
    "m_DefaultValue": {
        "x": 0.0,
        "y": 0.0,
        "z": 0.0,
        "w": 0.0
    }
}

{
    "m_SGVersion": 0,
    "m_Type": "UnityEditor.ShaderGraph.Vector1MaterialSlot",
    "m_ObjectId": "69378d58fa934935b9028bcd3e7ee4f2",
    "m_Id": 2,
    "m_DisplayName": "Radius",
    "m_SlotType": 0,
    "m_Hidden": false,
    "m_ShaderOutputName": "Radius",
    "m_StageCapability": 3,
    "m_Value": 0.10000000149011612,
    "m_DefaultValue": 0.10000000149011612,
    "m_Labels": []
}

{
    "m_SGVersion": 0,
    "m_Type": "UnityEditor.ShaderGraph.UVMaterialSlot",
    "m_ObjectId": "6aa0c3308c4b47a1a16bfe17a28ae254",
    "m_Id": 2,
    "m_DisplayName": "UV",
    "m_SlotType": 0,
    "m_Hidden": false,
    "m_ShaderOutputName": "UV",
    "m_StageCapability": 3,
    "m_Value": {
        "x": 0.0,
        "y": 0.0
    },
    "m_DefaultValue": {
        "x": 0.0,
        "y": 0.0
    },
    "m_Labels": [],
    "m_Channel": 0
}

{
    "m_SGVersion": 0,
    "m_Type": "UnityEditor.ShaderGraph.ReciprocalNode",
    "m_ObjectId": "6ec5ffeb0b83489cb79359c385bd3875",
    "m_Group": {
        "m_Id": ""
    },
    "m_Name": "Reciprocal",
    "m_DrawState": {
        "m_Expanded": true,
        "m_Position": {
            "serializedVersion": "2",
            "x": 1888.0,
            "y": 2611.999755859375,
            "width": 209.333251953125,
            "height": 316.0
        }
    },
    "m_Slots": [
        {
            "m_Id": "68414b54c9124292a11fe46813630656"
        },
        {
            "m_Id": "17c8e4839c454843a6fa4c5bc7212a1c"
        }
    ],
    "synonyms": [
        "rcp"
    ],
    "m_Precision": 0,
    "m_PreviewExpanded": true,
    "m_DismissedVersion": 0,
    "m_PreviewMode": 0,
    "m_CustomColors": {
        "m_SerializableColors": []
    },
    "m_ReciprocalMethod": 0
}

{
    "m_SGVersion": 0,
    "m_Type": "UnityEditor.ShaderGraph.Vector4MaterialSlot",
    "m_ObjectId": "789b140922fb4a20ab9ff938eb0004d2",
    "m_Id": 0,
    "m_DisplayName": "tint",
    "m_SlotType": 1,
    "m_Hidden": false,
    "m_ShaderOutputName": "Out",
    "m_StageCapability": 3,
    "m_Value": {
        "x": 0.0,
        "y": 0.0,
        "z": 0.0,
        "w": 0.0
    },
    "m_DefaultValue": {
        "x": 0.0,
        "y": 0.0,
        "z": 0.0,
        "w": 0.0
    },
    "m_Labels": []
}

{
    "m_SGVersion": 0,
    "m_Type": "UnityEditor.ShaderGraph.OneMinusNode",
    "m_ObjectId": "79ad33163aa14ab293f3ce1b85630d29",
    "m_Group": {
        "m_Id": ""
    },
    "m_Name": "One Minus",
    "m_DrawState": {
        "m_Expanded": true,
        "m_Position": {
            "serializedVersion": "2",
            "x": 2635.193115234375,
            "y": 2425.938232421875,
            "width": 0.0,
            "height": 0.0
        }
    },
    "m_Slots": [
        {
            "m_Id": "ec8e011556f14e579de6fab8f85bd35c"
        },
        {
            "m_Id": "4bbc69e9a070444b9bfdbe6d3ca68409"
        }
    ],
    "synonyms": [
        "complement",
        "invert",
        "opposite"
    ],
    "m_Precision": 0,
    "m_PreviewExpanded": true,
    "m_DismissedVersion": 0,
    "m_PreviewMode": 0,
    "m_CustomColors": {
        "m_SerializableColors": []
    }
}

{
    "m_SGVersion": 0,
    "m_Type": "UnityEditor.ShaderGraph.Vector2MaterialSlot",
    "m_ObjectId": "7b8dc15d630b4b90aed1202eaee91818",
    "m_Id": 0,
    "m_DisplayName": "glyphSizeInAtlas",
    "m_SlotType": 1,
    "m_Hidden": false,
    "m_ShaderOutputName": "Out",
    "m_StageCapability": 3,
    "m_Value": {
        "x": 0.0,
        "y": 0.0
    },
    "m_DefaultValue": {
        "x": 0.0,
        "y": 0.0
    },
    "m_Labels": []
}

{
    "m_SGVersion": 0,
    "m_Type": "UnityEditor.ShaderGraph.DynamicVectorMaterialSlot",
    "m_ObjectId": "7e080a46f3d54487aaf3f01e0bfeb27d",
    "m_Id": 0,
    "m_DisplayName": "Coords",
    "m_SlotType": 0,
    "m_Hidden": false,
    "m_ShaderOutputName": "Coords",
    "m_StageCapability": 3,
    "m_Value": {
        "x": 0.0,
        "y": 0.0,
        "z": 0.0,
        "w": 0.0
    },
    "m_DefaultValue": {
        "x": 0.0,
        "y": 0.0,
        "z": 0.0,
        "w": 0.0
    }
}

{
    "m_SGVersion": 0,
    "m_Type": "UnityEditor.ShaderGraph.Vector1MaterialSlot",
    "m_ObjectId": "814219ad0acd4ee98a6d45828e6cfd29",
    "m_Id": 4,
    "m_DisplayName": "Texel Height",
    "m_SlotType": 1,
    "m_Hidden": false,
    "m_ShaderOutputName": "Texel Height",
    "m_StageCapability": 3,
    "m_Value": 0.0,
    "m_DefaultValue": 0.0,
    "m_Labels": []
}

{
    "m_SGVersion": 3,
    "m_Type": "UnityEditor.ShaderGraph.Internal.ColorShaderProperty",
    "m_ObjectId": "866ee253a0864a7b83255e63f549f19f",
    "m_Guid": {
        "m_GuidSerialized": "3bc8efea-ddba-40fb-9e28-09055fa6f601"
    },
    "m_Name": "tint",
    "m_DefaultRefNameVersion": 1,
    "m_RefNameGeneratedByDisplayName": "tint",
    "m_DefaultReferenceName": "_tint",
    "m_OverrideReferenceName": "",
    "m_GeneratePropertyBlock": true,
    "m_UseCustomSlotLabel": false,
    "m_CustomSlotLabel": "",
    "m_DismissedVersion": 0,
    "m_Precision": 0,
    "overrideHLSLDeclaration": false,
    "hlslDeclarationOverride": 0,
    "m_Hidden": false,
    "m_Value": {
        "r": 1.0,
        "g": 1.0,
        "b": 1.0,
        "a": 1.0
    },
    "isMainColor": false,
    "m_ColorMode": 0
}

{
    "m_SGVersion": 0,
    "m_Type": "UnityEditor.ShaderGraph.Vector1MaterialSlot",
    "m_ObjectId": "869ee58620d6438a968f6cd1b95ec1b1",
    "m_Id": 7,
    "m_DisplayName": "A",
    "m_SlotType": 1,
    "m_Hidden": false,
    "m_ShaderOutputName": "A",
    "m_StageCapability": 2,
    "m_Value": 0.0,
    "m_DefaultValue": 0.0,
    "m_Labels": []
}

{
    "m_SGVersion": 0,
    "m_Type": "UnityEditor.ShaderGraph.Vector1MaterialSlot",
    "m_ObjectId": "8703f33f47dc4f3fbb0f5362ef341eda",
    "m_Id": 5,
    "m_DisplayName": "G",
    "m_SlotType": 1,
    "m_Hidden": false,
    "m_ShaderOutputName": "G",
    "m_StageCapability": 2,
    "m_Value": 0.0,
    "m_DefaultValue": 0.0,
    "m_Labels": []
}

{
    "m_SGVersion": 0,
    "m_Type": "UnityEditor.ShaderGraph.DynamicVectorMaterialSlot",
    "m_ObjectId": "87156f66bfb24c78aac05460a6335acf",
    "m_Id": 1,
    "m_DisplayName": "B",
    "m_SlotType": 0,
    "m_Hidden": false,
    "m_ShaderOutputName": "B",
    "m_StageCapability": 3,
    "m_Value": {
        "x": 2.0,
        "y": 2.0,
        "z": 2.0,
        "w": 2.0
    },
    "m_DefaultValue": {
        "x": 0.0,
        "y": 0.0,
        "z": 0.0,
        "w": 0.0
    }
}

{
    "m_SGVersion": 0,
    "m_Type": "UnityEditor.ShaderGraph.Vector4MaterialSlot",
    "m_ObjectId": "8d260185a95b4965b0c680d900cee5a7",
    "m_Id": 0,
    "m_DisplayName": "RGBA",
    "m_SlotType": 1,
    "m_Hidden": false,
    "m_ShaderOutputName": "RGBA",
    "m_StageCapability": 2,
    "m_Value": {
        "x": 0.0,
        "y": 0.0,
        "z": 0.0,
        "w": 0.0
    },
    "m_DefaultValue": {
        "x": 0.0,
        "y": 0.0,
        "z": 0.0,
        "w": 0.0
    },
    "m_Labels": []
}

{
    "m_SGVersion": 0,
    "m_Type": "UnityEditor.ShaderGraph.SphereMaskNode",
    "m_ObjectId": "8f08d98560124314aaaecec2120e5421",
    "m_Group": {
        "m_Id": ""
    },
    "m_Name": "Sphere Mask",
    "m_DrawState": {
        "m_Expanded": true,
        "m_Position": {
            "serializedVersion": "2",
            "x": 2188.666748046875,
            "y": 2366.66650390625,
            "width": 209.333251953125,
            "height": 352.000244140625
        }
    },
    "m_Slots": [
        {
            "m_Id": "7e080a46f3d54487aaf3f01e0bfeb27d"
        },
        {
            "m_Id": "e911652398214ce9817545a7fe7897f9"
        },
        {
            "m_Id": "69378d58fa934935b9028bcd3e7ee4f2"
        },
        {
            "m_Id": "11659ce5a0754c569c5001821d82eb6d"
        },
        {
            "m_Id": "9e75bcc26f714c3ca719d40c22c9fa9d"
        }
    ],
    "synonyms": [],
    "m_Precision": 0,
    "m_PreviewExpanded": true,
    "m_DismissedVersion": 0,
    "m_PreviewMode": 0,
    "m_CustomColors": {
        "m_SerializableColors": []
    }
}

{
    "m_SGVersion": 0,
    "m_Type": "UnityEditor.ShaderGraph.DynamicValueMaterialSlot",
    "m_ObjectId": "8fe76e921349432789459ffa8a185cb1",
    "m_Id": 0,
    "m_DisplayName": "A",
    "m_SlotType": 0,
    "m_Hidden": false,
    "m_ShaderOutputName": "A",
    "m_StageCapability": 3,
    "m_Value": {
        "e00": 0.0,
        "e01": 0.0,
        "e02": 0.0,
        "e03": 0.0,
        "e10": 0.0,
        "e11": 0.0,
        "e12": 0.0,
        "e13": 0.0,
        "e20": 0.0,
        "e21": 0.0,
        "e22": 0.0,
        "e23": 0.0,
        "e30": 0.0,
        "e31": 0.0,
        "e32": 0.0,
        "e33": 0.0
    },
    "m_DefaultValue": {
        "e00": 1.0,
        "e01": 0.0,
        "e02": 0.0,
        "e03": 0.0,
        "e10": 0.0,
        "e11": 1.0,
        "e12": 0.0,
        "e13": 0.0,
        "e20": 0.0,
        "e21": 0.0,
        "e22": 1.0,
        "e23": 0.0,
        "e30": 0.0,
        "e31": 0.0,
        "e32": 0.0,
        "e33": 1.0
    }
}

{
    "m_SGVersion": 0,
    "m_Type": "UnityEditor.ShaderGraph.DynamicValueMaterialSlot",
    "m_ObjectId": "92df437be1d641ca92d3e263c8417827",
    "m_Id": 2,
    "m_DisplayName": "Out",
    "m_SlotType": 1,
    "m_Hidden": false,
    "m_ShaderOutputName": "Out",
    "m_StageCapability": 3,
    "m_Value": {
        "e00": 0.0,
        "e01": 0.0,
        "e02": 0.0,
        "e03": 0.0,
        "e10": 0.0,
        "e11": 0.0,
        "e12": 0.0,
        "e13": 0.0,
        "e20": 0.0,
        "e21": 0.0,
        "e22": 0.0,
        "e23": 0.0,
        "e30": 0.0,
        "e31": 0.0,
        "e32": 0.0,
        "e33": 0.0
    },
    "m_DefaultValue": {
        "e00": 1.0,
        "e01": 0.0,
        "e02": 0.0,
        "e03": 0.0,
        "e10": 0.0,
        "e11": 1.0,
        "e12": 0.0,
        "e13": 0.0,
        "e20": 0.0,
        "e21": 0.0,
        "e22": 1.0,
        "e23": 0.0,
        "e30": 0.0,
        "e31": 0.0,
        "e32": 0.0,
        "e33": 1.0
    }
}

{
    "m_SGVersion": 0,
    "m_Type": "UnityEditor.ShaderGraph.Vector1MaterialSlot",
    "m_ObjectId": "94c9be19835642e39e597be20c964433",
    "m_Id": 0,
    "m_DisplayName": "Alpha",
    "m_SlotType": 0,
    "m_Hidden": false,
    "m_ShaderOutputName": "Alpha",
    "m_StageCapability": 2,
    "m_Value": 1.0,
    "m_DefaultValue": 1.0,
    "m_Labels": []
}

{
    "m_SGVersion": 1,
    "m_Type": "UnityEditor.ShaderGraph.Internal.Vector1ShaderProperty",
    "m_ObjectId": "9c5b793b2598400c8976c76ca8d6cdf7",
    "m_Guid": {
        "m_GuidSerialized": "4968a20b-22de-4f4d-bac9-676825acaa63"
    },
    "m_Name": "thickness",
    "m_DefaultRefNameVersion": 1,
    "m_RefNameGeneratedByDisplayName": "thickness",
    "m_DefaultReferenceName": "_thickness",
    "m_OverrideReferenceName": "",
    "m_GeneratePropertyBlock": true,
    "m_UseCustomSlotLabel": false,
    "m_CustomSlotLabel": "",
    "m_DismissedVersion": 0,
    "m_Precision": 0,
    "overrideHLSLDeclaration": false,
    "hlslDeclarationOverride": 0,
    "m_Hidden": false,
    "m_Value": 1.0,
    "m_FloatType": 0,
    "m_RangeValues": {
        "x": 0.0,
        "y": 1.0
    }
}

{
    "m_SGVersion": 0,
    "m_Type": "UnityEditor.ShaderGraph.Vector1MaterialSlot",
    "m_ObjectId": "9e75bcc26f714c3ca719d40c22c9fa9d",
    "m_Id": 4,
    "m_DisplayName": "Out",
    "m_SlotType": 1,
    "m_Hidden": false,
    "m_ShaderOutputName": "Out",
    "m_StageCapability": 3,
    "m_Value": 0.0,
    "m_DefaultValue": 0.0,
    "m_Labels": []
}

{
    "m_SGVersion": 0,
    "m_Type": "UnityEditor.ShaderGraph.NormalMaterialSlot",
    "m_ObjectId": "a086ff5bf93245cea234a07de3084d22",
    "m_Id": 0,
    "m_DisplayName": "Normal",
    "m_SlotType": 0,
    "m_Hidden": false,
    "m_ShaderOutputName": "Normal",
    "m_StageCapability": 1,
    "m_Value": {
        "x": 0.0,
        "y": 0.0,
        "z": 0.0
    },
    "m_DefaultValue": {
        "x": 0.0,
        "y": 0.0,
        "z": 0.0
    },
    "m_Labels": [],
    "m_Space": 0
}

{
    "m_SGVersion": 0,
    "m_Type": "UnityEditor.ShaderGraph.Texture2DMaterialSlot",
    "m_ObjectId": "a1041d6316e347f78bc5511e05a913a7",
    "m_Id": 0,
    "m_DisplayName": "atlas",
    "m_SlotType": 1,
    "m_Hidden": false,
    "m_ShaderOutputName": "Out",
    "m_StageCapability": 3,
    "m_BareResource": false
}

{
    "m_SGVersion": 0,
    "m_Type": "UnityEditor.ShaderGraph.BlockNode",
    "m_ObjectId": "a1196f6938ee4c1298192ea2831c28b1",
    "m_Group": {
        "m_Id": ""
    },
    "m_Name": "VertexDescription.Tangent",
    "m_DrawState": {
        "m_Expanded": true,
        "m_Position": {
            "serializedVersion": "2",
            "x": 0.0,
            "y": 0.0,
            "width": 0.0,
            "height": 0.0
        }
    },
    "m_Slots": [
        {
            "m_Id": "24bdfba492b34489bdb637109b2a18bc"
        }
    ],
    "synonyms": [],
    "m_Precision": 0,
    "m_PreviewExpanded": true,
    "m_DismissedVersion": 0,
    "m_PreviewMode": 0,
    "m_CustomColors": {
        "m_SerializableColors": []
    },
    "m_SerializedDescriptor": "VertexDescription.Tangent"
}

{
    "m_SGVersion": 0,
    "m_Type": "UnityEditor.ShaderGraph.UVMaterialSlot",
    "m_ObjectId": "a1bf003cc6ee4b89a074c42ec57e084f",
    "m_Id": 0,
    "m_DisplayName": "UV",
    "m_SlotType": 0,
    "m_Hidden": false,
    "m_ShaderOutputName": "UV",
    "m_StageCapability": 3,
    "m_Value": {
        "x": 0.0,
        "y": 0.0
    },
    "m_DefaultValue": {
        "x": 0.0,
        "y": 0.0
    },
    "m_Labels": [],
    "m_Channel": 0
}

{
    "m_SGVersion": 0,
    "m_Type": "UnityEditor.ShaderGraph.PropertyNode",
    "m_ObjectId": "a6b4a6ffb458429a97ec32a25cfebaaa",
    "m_Group": {
        "m_Id": ""
    },
    "m_Name": "Property",
    "m_DrawState": {
        "m_Expanded": true,
        "m_Position": {
            "serializedVersion": "2",
            "x": 1935.3333740234375,
            "y": 2478.66650390625,
            "width": 124.6666259765625,
            "height": 36.0
        }
    },
    "m_Slots": [
        {
            "m_Id": "5a2de8397f0340a59c23ca4e4f0a3b33"
        }
    ],
    "synonyms": [],
    "m_Precision": 0,
    "m_PreviewExpanded": true,
    "m_DismissedVersion": 0,
    "m_PreviewMode": 0,
    "m_CustomColors": {
        "m_SerializableColors": []
    },
    "m_Property": {
        "m_Id": "fe4e85961d8e4576b8ec811e6b7515c5"
    }
}

{
    "m_SGVersion": 0,
    "m_Type": "UnityEditor.ShaderGraph.Internal.Texture2DShaderProperty",
    "m_ObjectId": "a91f1889203e4e86b1b62bab44694355",
    "m_Guid": {
        "m_GuidSerialized": "9665c365-27a1-49ef-90ed-376c16a3c8b2"
    },
    "m_Name": "atlas",
    "m_DefaultRefNameVersion": 1,
    "m_RefNameGeneratedByDisplayName": "atlas",
    "m_DefaultReferenceName": "_atlas",
    "m_OverrideReferenceName": "",
    "m_GeneratePropertyBlock": true,
    "m_UseCustomSlotLabel": false,
    "m_CustomSlotLabel": "",
    "m_DismissedVersion": 0,
    "m_Precision": 0,
    "overrideHLSLDeclaration": false,
    "hlslDeclarationOverride": 0,
    "m_Hidden": false,
    "m_Value": {
        "m_SerializedTexture": "{\"texture\":{\"instanceID\":0}}",
        "m_Guid": ""
    },
    "isMainTexture": false,
    "useTilingAndOffset": false,
    "m_Modifiable": true,
    "m_DefaultType": 0
}

{
    "m_SGVersion": 0,
    "m_Type": "UnityEditor.ShaderGraph.Vector2MaterialSlot",
    "m_ObjectId": "a990ab72ab8d43b7b7341316a615da79",
    "m_Id": 0,
    "m_DisplayName": "Out",
    "m_SlotType": 1,
    "m_Hidden": false,
    "m_ShaderOutputName": "Out",
    "m_StageCapability": 3,
    "m_Value": {
        "x": 0.0,
        "y": 0.0
    },
    "m_DefaultValue": {
        "x": 0.0,
        "y": 0.0
    },
    "m_Labels": []
}

{
    "m_SGVersion": 0,
    "m_Type": "UnityEditor.ShaderGraph.SampleTexture2DNode",
    "m_ObjectId": "ab63c63d9ad94faba6d6d56a2a259dba",
    "m_Group": {
        "m_Id": ""
    },
    "m_Name": "Sample Texture 2D",
    "m_DrawState": {
        "m_Expanded": true,
        "m_Position": {
            "serializedVersion": "2",
            "x": 1650.6666259765625,
            "y": 2010.0001220703125,
            "width": 209.33349609375,
            "height": 438.6663818359375
        }
    },
    "m_Slots": [
        {
            "m_Id": "8d260185a95b4965b0c680d900cee5a7"
        },
        {
            "m_Id": "0155cbcd55084b51abd7115327cb1b4c"
        },
        {
            "m_Id": "8703f33f47dc4f3fbb0f5362ef341eda"
        },
        {
            "m_Id": "fdf224fe0c9747d1839f1e8fa62f0c07"
        },
        {
            "m_Id": "869ee58620d6438a968f6cd1b95ec1b1"
        },
        {
            "m_Id": "39be395d8442472badf6352c487e2dde"
        },
        {
            "m_Id": "6aa0c3308c4b47a1a16bfe17a28ae254"
        },
        {
            "m_Id": "54ec30b0bb2c498f8f6003ca6525085b"
        }
    ],
    "synonyms": [
        "tex2d"
    ],
    "m_Precision": 0,
    "m_PreviewExpanded": true,
    "m_DismissedVersion": 0,
    "m_PreviewMode": 0,
    "m_CustomColors": {
        "m_SerializableColors": []
    },
    "m_TextureType": 0,
    "m_NormalMapSpace": 0,
    "m_EnableGlobalMipBias": true,
    "m_MipSamplingMode": 0
}

{
    "m_SGVersion": 0,
    "m_Type": "UnityEditor.ShaderGraph.PositionMaterialSlot",
    "m_ObjectId": "b01f5d48022f47cc81cdbccdce89424e",
    "m_Id": 0,
    "m_DisplayName": "Position",
    "m_SlotType": 0,
    "m_Hidden": false,
    "m_ShaderOutputName": "Position",
    "m_StageCapability": 1,
    "m_Value": {
        "x": 0.0,
        "y": 0.0,
        "z": 0.0
    },
    "m_DefaultValue": {
        "x": 0.0,
        "y": 0.0,
        "z": 0.0
    },
    "m_Labels": [],
    "m_Space": 0
}

{
    "m_SGVersion": 0,
    "m_Type": "UnityEditor.ShaderGraph.PropertyNode",
    "m_ObjectId": "b40d3ee551e4470ba0e5370e306cf12d",
    "m_Group": {
        "m_Id": ""
    },
    "m_Name": "Property",
    "m_DrawState": {
        "m_Expanded": true,
        "m_Position": {
            "serializedVersion": "2",
            "x": 646.0,
            "y": 2687.333251953125,
            "width": 184.0,
            "height": 36.0
        }
    },
    "m_Slots": [
        {
            "m_Id": "51d58bdc6cd34fe4b267e330524693de"
        }
    ],
    "synonyms": [],
    "m_Precision": 0,
    "m_PreviewExpanded": true,
    "m_DismissedVersion": 0,
    "m_PreviewMode": 0,
    "m_CustomColors": {
        "m_SerializableColors": []
    },
    "m_Property": {
        "m_Id": "f1934156a3794a9ea641ad442d933447"
    }
}

{
    "m_SGVersion": 0,
    "m_Type": "UnityEditor.ShaderGraph.TilingAndOffsetNode",
    "m_ObjectId": "b77a9b56ad3b41d1a0e338f08d451c86",
    "m_Group": {
        "m_Id": ""
    },
    "m_Name": "Tiling And Offset",
    "m_DrawState": {
        "m_Expanded": true,
        "m_Position": {
            "serializedVersion": "2",
            "x": 1314.6666259765625,
            "y": 2284.0,
            "width": 209.3333740234375,
            "height": 328.0
        }
    },
    "m_Slots": [
        {
            "m_Id": "a1bf003cc6ee4b89a074c42ec57e084f"
        },
        {
            "m_Id": "1f942bfd609241d5a342275476e4a3de"
        },
        {
            "m_Id": "15397751fc31440d9928a2b1e3c886c9"
        },
        {
            "m_Id": "2e52a0b72659433a8bcbb2d7f710948b"
        }
    ],
    "synonyms": [
        "pan",
        "scale"
    ],
    "m_Precision": 0,
    "m_PreviewExpanded": true,
    "m_DismissedVersion": 0,
    "m_PreviewMode": 0,
    "m_CustomColors": {
        "m_SerializableColors": []
    }
}

{
    "m_SGVersion": 0,
    "m_Type": "UnityEditor.ShaderGraph.PropertyNode",
    "m_ObjectId": "b80dfc1e416d4d30896104455b4da666",
    "m_Group": {
        "m_Id": ""
    },
    "m_Name": "Property",
    "m_DrawState": {
        "m_Expanded": true,
        "m_Position": {
            "serializedVersion": "2",
            "x": 1588.0,
            "y": 2651.333251953125,
            "width": 125.3333740234375,
            "height": 36.0
        }
    },
    "m_Slots": [
        {
            "m_Id": "303d70805ca7417991f8d973f2298d5a"
        }
    ],
    "synonyms": [],
    "m_Precision": 0,
    "m_PreviewExpanded": true,
    "m_DismissedVersion": 0,
    "m_PreviewMode": 0,
    "m_CustomColors": {
        "m_SerializableColors": []
    },
    "m_Property": {
        "m_Id": "9c5b793b2598400c8976c76ca8d6cdf7"
    }
}

{
    "m_SGVersion": 0,
    "m_Type": "UnityEditor.ShaderGraph.BlockNode",
    "m_ObjectId": "c11833cd3b3f445e83de74644e7cf7a7",
    "m_Group": {
        "m_Id": ""
    },
    "m_Name": "SurfaceDescription.Alpha",
    "m_DrawState": {
        "m_Expanded": true,
        "m_Position": {
            "serializedVersion": "2",
            "x": 0.0,
            "y": 0.0,
            "width": 0.0,
            "height": 0.0
        }
    },
    "m_Slots": [
        {
            "m_Id": "94c9be19835642e39e597be20c964433"
        }
    ],
    "synonyms": [],
    "m_Precision": 0,
    "m_PreviewExpanded": true,
    "m_DismissedVersion": 0,
    "m_PreviewMode": 0,
    "m_CustomColors": {
        "m_SerializableColors": []
    },
    "m_SerializedDescriptor": "SurfaceDescription.Alpha"
}

{
    "m_SGVersion": 0,
    "m_Type": "UnityEditor.ShaderGraph.MultiplyNode",
    "m_ObjectId": "c38c070a3a5d4ba18e18bf6b8c231a0a",
    "m_Group": {
        "m_Id": ""
    },
    "m_Name": "Multiply",
    "m_DrawState": {
        "m_Expanded": true,
        "m_Position": {
            "serializedVersion": "2",
            "x": 2942.6669921875,
            "y": 2304.66650390625,
            "width": 209.3330078125,
            "height": 304.0
        }
    },
    "m_Slots": [
        {
            "m_Id": "8fe76e921349432789459ffa8a185cb1"
        },
        {
            "m_Id": "4f8c0e6287184fa585d4873c57f6947a"
        },
        {
            "m_Id": "f8c9fc70eff84ec98e8f650b780b22e4"
        }
    ],
    "synonyms": [
        "multiplication",
        "times",
        "x"
    ],
    "m_Precision": 0,
    "m_PreviewExpanded": true,
    "m_DismissedVersion": 0,
    "m_PreviewMode": 0,
    "m_CustomColors": {
        "m_SerializableColors": []
    }
}

{
    "m_SGVersion": 0,
    "m_Type": "UnityEditor.Rendering.Universal.ShaderGraph.UniversalSpriteUnlitSubTarget",
    "m_ObjectId": "c3af3344da05451db0a5125368ca4254"
}

{
    "m_SGVersion": 0,
    "m_Type": "UnityEditor.ShaderGraph.Vector2Node",
    "m_ObjectId": "c4d170125011428f8177765ee336c174",
    "m_Group": {
        "m_Id": ""
    },
    "m_Name": "Vector 2",
    "m_DrawState": {
        "m_Expanded": true,
        "m_Position": {
            "serializedVersion": "2",
            "x": 323.3333435058594,
            "y": 2584.66650390625,
            "width": 129.3333740234375,
            "height": 102.666748046875
        }
    },
    "m_Slots": [
        {
            "m_Id": "151f32d02f0c4cb396796000788bc406"
        },
        {
            "m_Id": "4c53c06ce0d7430db319d534e33f4516"
        },
        {
            "m_Id": "a990ab72ab8d43b7b7341316a615da79"
        }
    ],
    "synonyms": [
        "2",
        "v2",
        "vec2",
        "float2"
    ],
    "m_Precision": 0,
    "m_PreviewExpanded": true,
    "m_DismissedVersion": 0,
    "m_PreviewMode": 0,
    "m_CustomColors": {
        "m_SerializableColors": []
    },
    "m_Value": {
        "x": 0.0,
        "y": 0.0
    }
}

{
    "m_SGVersion": 0,
    "m_Type": "UnityEditor.ShaderGraph.DynamicValueMaterialSlot",
    "m_ObjectId": "c4ef7d22c73943fa82001e53d5fbe07c",
    "m_Id": 1,
    "m_DisplayName": "B",
    "m_SlotType": 0,
    "m_Hidden": false,
    "m_ShaderOutputName": "B",
    "m_StageCapability": 3,
    "m_Value": {
        "e00": 2.0,
        "e01": 2.0,
        "e02": 2.0,
        "e03": 2.0,
        "e10": 2.0,
        "e11": 2.0,
        "e12": 2.0,
        "e13": 2.0,
        "e20": 2.0,
        "e21": 2.0,
        "e22": 2.0,
        "e23": 2.0,
        "e30": 2.0,
        "e31": 2.0,
        "e32": 2.0,
        "e33": 2.0
    },
    "m_DefaultValue": {
        "e00": 1.0,
        "e01": 0.0,
        "e02": 0.0,
        "e03": 0.0,
        "e10": 0.0,
        "e11": 1.0,
        "e12": 0.0,
        "e13": 0.0,
        "e20": 0.0,
        "e21": 0.0,
        "e22": 1.0,
        "e23": 0.0,
        "e30": 0.0,
        "e31": 0.0,
        "e32": 0.0,
        "e33": 1.0
    }
}

{
    "m_SGVersion": 0,
    "m_Type": "UnityEditor.ShaderGraph.DynamicValueMaterialSlot",
    "m_ObjectId": "c665702c9c23457ab707b812aa2ca77a",
    "m_Id": 0,
    "m_DisplayName": "A",
    "m_SlotType": 0,
    "m_Hidden": false,
    "m_ShaderOutputName": "A",
    "m_StageCapability": 3,
    "m_Value": {
        "e00": 1.0,
        "e01": 1.0,
        "e02": 1.0,
        "e03": 1.0,
        "e10": 0.0,
        "e11": 0.0,
        "e12": 0.0,
        "e13": 0.0,
        "e20": 0.0,
        "e21": 0.0,
        "e22": 0.0,
        "e23": 0.0,
        "e30": 0.0,
        "e31": 0.0,
        "e32": 0.0,
        "e33": 0.0
    },
    "m_DefaultValue": {
        "e00": 1.0,
        "e01": 0.0,
        "e02": 0.0,
        "e03": 0.0,
        "e10": 0.0,
        "e11": 1.0,
        "e12": 0.0,
        "e13": 0.0,
        "e20": 0.0,
        "e21": 0.0,
        "e22": 1.0,
        "e23": 0.0,
        "e30": 0.0,
        "e31": 0.0,
        "e32": 0.0,
        "e33": 1.0
    }
}

{
    "m_SGVersion": 0,
    "m_Type": "UnityEditor.ShaderGraph.SubGraphNode",
    "m_ObjectId": "c6fb7eb09da54aa2b9999efb4047587e",
    "m_Group": {
        "m_Id": ""
    },
    "m_Name": "Text Effect",
    "m_DrawState": {
        "m_Expanded": true,
        "m_Position": {
            "serializedVersion": "2",
            "x": 2016.0,
            "y": 1530.666748046875,
            "width": 209.333251953125,
            "height": 280.0
        }
    },
    "m_Slots": [
        {
            "m_Id": "dfccb91e29eb4c6bb54dd18d3cad4bd0"
        },
        {
            "m_Id": "08acdd5a65c641af8ad682d2162eb915"
        }
    ],
    "synonyms": [],
    "m_Precision": 0,
    "m_PreviewExpanded": true,
    "m_DismissedVersion": 0,
    "m_PreviewMode": 0,
    "m_CustomColors": {
        "m_SerializableColors": []
    },
    "m_SerializedSubGraph": "{\n    \"subGraph\": {\n        \"fileID\": -5475051401550479605,\n        \"guid\": \"9a739ed2e93a25b4eb85e752f5352564\",\n        \"type\": 3\n    }\n}",
    "m_PropertyGuids": [
        "5770054c-7cd4-4026-9907-5b64610badbe"
    ],
    "m_PropertyIds": [
        -845122208
    ],
    "m_Dropdowns": [],
    "m_DropdownSelectedEntries": []
}

{
    "m_SGVersion": 1,
    "m_Type": "UnityEditor.Rendering.Universal.ShaderGraph.UniversalTarget",
    "m_ObjectId": "c789d3a32ad14b109215a5a5d39f6ff5",
    "m_Datas": [],
    "m_ActiveSubTarget": {
        "m_Id": "c3af3344da05451db0a5125368ca4254"
    },
    "m_AllowMaterialOverride": false,
    "m_SurfaceType": 1,
    "m_ZTestMode": 4,
    "m_ZWriteControl": 1,
    "m_AlphaMode": 0,
    "m_RenderFace": 2,
    "m_AlphaClip": false,
    "m_CastShadows": false,
    "m_ReceiveShadows": false,
    "m_SupportsLODCrossFade": false,
    "m_CustomEditorGUI": "",
    "m_SupportVFX": false
}

{
    "m_SGVersion": 0,
    "m_Type": "UnityEditor.ShaderGraph.SplitNode",
    "m_ObjectId": "cace906b823640bbb871832253d3e933",
    "m_Group": {
        "m_Id": ""
    },
    "m_Name": "Split",
    "m_DrawState": {
        "m_Expanded": true,
        "m_Position": {
            "serializedVersion": "2",
            "x": 2460.39404296875,
            "y": 2229.727294921875,
            "width": 120.66650390625,
            "height": 150.666748046875
        }
    },
    "m_Slots": [
        {
            "m_Id": "cb8829003fe94252ae7deb950a48460b"
        },
        {
            "m_Id": "dbfb4f63d89c487a8a3fd5426d131eda"
        },
        {
            "m_Id": "fbc4ea15f9114308a5e323e2a76a3307"
        },
        {
            "m_Id": "f34d4cebe33a427ca1e2c4c7de49daf3"
        },
        {
            "m_Id": "d23a41bdebd343cdb8add18c39b5a449"
        }
    ],
    "synonyms": [
        "separate"
    ],
    "m_Precision": 0,
    "m_PreviewExpanded": true,
    "m_DismissedVersion": 0,
    "m_PreviewMode": 0,
    "m_CustomColors": {
        "m_SerializableColors": []
    }
}

{
    "m_SGVersion": 0,
    "m_Type": "UnityEditor.ShaderGraph.DynamicVectorMaterialSlot",
    "m_ObjectId": "cb8829003fe94252ae7deb950a48460b",
    "m_Id": 0,
    "m_DisplayName": "In",
    "m_SlotType": 0,
    "m_Hidden": false,
    "m_ShaderOutputName": "In",
    "m_StageCapability": 3,
    "m_Value": {
        "x": 0.0,
        "y": 0.0,
        "z": 0.0,
        "w": 0.0
    },
    "m_DefaultValue": {
        "x": 0.0,
        "y": 0.0,
        "z": 0.0,
        "w": 0.0
    }
}

{
    "m_SGVersion": 0,
    "m_Type": "UnityEditor.ShaderGraph.Texture2DPropertiesNode",
    "m_ObjectId": "cce0122d001c441a8a7a433c493856ca",
    "m_Group": {
        "m_Id": ""
    },
    "m_Name": "Texel Size",
    "m_DrawState": {
        "m_Expanded": true,
        "m_Position": {
            "serializedVersion": "2",
            "x": 39.33333969116211,
            "y": 2407.333251953125,
            "width": 184.66671752929688,
            "height": 102.666748046875
        }
    },
    "m_Slots": [
        {
            "m_Id": "e12abbdce3c64ff38069aa0aca2f3b67"
        },
        {
            "m_Id": "5ce7d27d2c184971a31f04631fd3de3a"
        },
        {
            "m_Id": "f5ec605097894c179d0235ce0aad3aca"
        },
        {
            "m_Id": "ee07437dd2034b74ab248b8a1bc0d356"
        },
        {
            "m_Id": "814219ad0acd4ee98a6d45828e6cfd29"
        }
    ],
    "synonyms": [
        "texture size"
    ],
    "m_Precision": 0,
    "m_PreviewExpanded": true,
    "m_DismissedVersion": 0,
    "m_PreviewMode": 0,
    "m_CustomColors": {
        "m_SerializableColors": []
    }
}

{
    "m_SGVersion": 0,
    "m_Type": "UnityEditor.ShaderGraph.Vector1MaterialSlot",
    "m_ObjectId": "d23a41bdebd343cdb8add18c39b5a449",
    "m_Id": 4,
    "m_DisplayName": "A",
    "m_SlotType": 1,
    "m_Hidden": false,
    "m_ShaderOutputName": "A",
    "m_StageCapability": 3,
    "m_Value": 0.0,
    "m_DefaultValue": 0.0,
    "m_Labels": []
}

{
    "m_SGVersion": 0,
    "m_Type": "UnityEditor.ShaderGraph.CategoryData",
    "m_ObjectId": "d5cf08317d0b4822a742c90644e33ff8",
    "m_Name": "",
    "m_ChildObjectList": [
        {
            "m_Id": "9c5b793b2598400c8976c76ca8d6cdf7"
        },
        {
            "m_Id": "fe4e85961d8e4576b8ec811e6b7515c5"
        },
        {
            "m_Id": "f1934156a3794a9ea641ad442d933447"
        },
        {
            "m_Id": "5a4d00336c674528a694638e37a6bacf"
        },
        {
            "m_Id": "a91f1889203e4e86b1b62bab44694355"
        },
        {
            "m_Id": "866ee253a0864a7b83255e63f549f19f"
        }
    ]
}

{
    "m_SGVersion": 0,
    "m_Type": "UnityEditor.ShaderGraph.Vector1MaterialSlot",
    "m_ObjectId": "dbfb4f63d89c487a8a3fd5426d131eda",
    "m_Id": 1,
    "m_DisplayName": "R",
    "m_SlotType": 1,
    "m_Hidden": false,
    "m_ShaderOutputName": "R",
    "m_StageCapability": 3,
    "m_Value": 0.0,
    "m_DefaultValue": 0.0,
    "m_Labels": []
}

{
    "m_SGVersion": 0,
    "m_Type": "UnityEditor.ShaderGraph.Vector4MaterialSlot",
    "m_ObjectId": "dfccb91e29eb4c6bb54dd18d3cad4bd0",
    "m_Id": -845122208,
    "m_DisplayName": "tint",
    "m_SlotType": 0,
    "m_Hidden": false,
    "m_ShaderOutputName": "_tint",
    "m_StageCapability": 2,
    "m_Value": {
        "x": 1.0,
        "y": 1.0,
        "z": 1.0,
        "w": 1.0
    },
    "m_DefaultValue": {
        "x": 0.0,
        "y": 0.0,
        "z": 0.0,
        "w": 0.0
    },
    "m_Labels": []
}

{
    "m_SGVersion": 0,
    "m_Type": "UnityEditor.ShaderGraph.Vector1MaterialSlot",
    "m_ObjectId": "e12abbdce3c64ff38069aa0aca2f3b67",
    "m_Id": 0,
    "m_DisplayName": "Width",
    "m_SlotType": 1,
    "m_Hidden": false,
    "m_ShaderOutputName": "Width",
    "m_StageCapability": 3,
    "m_Value": 0.0,
    "m_DefaultValue": 0.0,
    "m_Labels": []
}

{
    "m_SGVersion": 0,
    "m_Type": "UnityEditor.ShaderGraph.MultiplyNode",
    "m_ObjectId": "e854e730d24848efadc0d3e8cad3e2fd",
    "m_Group": {
        "m_Id": ""
    },
    "m_Name": "Multiply",
    "m_DrawState": {
        "m_Expanded": true,
        "m_Position": {
            "serializedVersion": "2",
            "x": 2456.666748046875,
            "y": 1833.9998779296875,
            "width": 209.3330078125,
            "height": 304.0001220703125
        }
    },
    "m_Slots": [
        {
            "m_Id": "c665702c9c23457ab707b812aa2ca77a"
        },
        {
            "m_Id": "c4ef7d22c73943fa82001e53d5fbe07c"
        },
        {
            "m_Id": "92df437be1d641ca92d3e263c8417827"
        }
    ],
    "synonyms": [
        "multiplication",
        "times",
        "x"
    ],
    "m_Precision": 0,
    "m_PreviewExpanded": true,
    "m_DismissedVersion": 0,
    "m_PreviewMode": 0,
    "m_CustomColors": {
        "m_SerializableColors": []
    }
}

{
    "m_SGVersion": 0,
    "m_Type": "UnityEditor.ShaderGraph.DynamicVectorMaterialSlot",
    "m_ObjectId": "e911652398214ce9817545a7fe7897f9",
    "m_Id": 1,
    "m_DisplayName": "Center",
    "m_SlotType": 0,
    "m_Hidden": false,
    "m_ShaderOutputName": "Center",
    "m_StageCapability": 3,
    "m_Value": {
        "x": 0.5,
        "y": 0.5,
        "z": 0.5,
        "w": 0.5
    },
    "m_DefaultValue": {
        "x": 0.0,
        "y": 0.0,
        "z": 0.0,
        "w": 0.0
    }
}

{
    "m_SGVersion": 0,
    "m_Type": "UnityEditor.ShaderGraph.BlockNode",
    "m_ObjectId": "e933b608b7dc4217b02681651cc6b7b2",
    "m_Group": {
        "m_Id": ""
    },
    "m_Name": "SurfaceDescription.BaseColor",
    "m_DrawState": {
        "m_Expanded": true,
        "m_Position": {
            "serializedVersion": "2",
            "x": 3249.33349609375,
            "y": 2152.666748046875,
            "width": 200.0,
            "height": 42.666748046875
        }
    },
    "m_Slots": [
        {
            "m_Id": "38de52233f0d4726977fe59fab15d7ea"
        }
    ],
    "synonyms": [],
    "m_Precision": 0,
    "m_PreviewExpanded": true,
    "m_DismissedVersion": 0,
    "m_PreviewMode": 0,
    "m_CustomColors": {
        "m_SerializableColors": []
    },
    "m_SerializedDescriptor": "SurfaceDescription.BaseColor"
}

{
    "m_SGVersion": 0,
    "m_Type": "UnityEditor.ShaderGraph.DynamicVectorMaterialSlot",
    "m_ObjectId": "eb8cf4ce48fe411c9bd4a633416c4c54",
    "m_Id": 2,
    "m_DisplayName": "Out",
    "m_SlotType": 1,
    "m_Hidden": false,
    "m_ShaderOutputName": "Out",
    "m_StageCapability": 3,
    "m_Value": {
        "x": 0.0,
        "y": 0.0,
        "z": 0.0,
        "w": 0.0
    },
    "m_DefaultValue": {
        "x": 0.0,
        "y": 0.0,
        "z": 0.0,
        "w": 0.0
    }
}

{
    "m_SGVersion": 0,
    "m_Type": "UnityEditor.ShaderGraph.DynamicVectorMaterialSlot",
    "m_ObjectId": "ec8e011556f14e579de6fab8f85bd35c",
    "m_Id": 0,
    "m_DisplayName": "In",
    "m_SlotType": 0,
    "m_Hidden": false,
    "m_ShaderOutputName": "In",
    "m_StageCapability": 3,
    "m_Value": {
        "x": 1.0,
        "y": 1.0,
        "z": 1.0,
        "w": 1.0
    },
    "m_DefaultValue": {
        "x": 0.0,
        "y": 0.0,
        "z": 0.0,
        "w": 0.0
    }
}

{
    "m_SGVersion": 0,
    "m_Type": "UnityEditor.ShaderGraph.Vector1MaterialSlot",
    "m_ObjectId": "ee07437dd2034b74ab248b8a1bc0d356",
    "m_Id": 3,
    "m_DisplayName": "Texel Width",
    "m_SlotType": 1,
    "m_Hidden": false,
    "m_ShaderOutputName": "Texel Width",
    "m_StageCapability": 3,
    "m_Value": 0.0,
    "m_DefaultValue": 0.0,
    "m_Labels": []
}

{
    "m_SGVersion": 0,
    "m_Type": "UnityEditor.ShaderGraph.PropertyNode",
    "m_ObjectId": "f01518257c854c379f109c299959bceb",
    "m_Group": {
        "m_Id": ""
    },
    "m_Name": "Property",
    "m_DrawState": {
        "m_Expanded": true,
        "m_Position": {
            "serializedVersion": "2",
            "x": -169.99998474121095,
            "y": 2050.0,
            "width": 110.00004577636719,
            "height": 36.0
        }
    },
    "m_Slots": [
        {
            "m_Id": "a1041d6316e347f78bc5511e05a913a7"
        }
    ],
    "synonyms": [],
    "m_Precision": 0,
    "m_PreviewExpanded": true,
    "m_DismissedVersion": 0,
    "m_PreviewMode": 0,
    "m_CustomColors": {
        "m_SerializableColors": []
    },
    "m_Property": {
        "m_Id": "a91f1889203e4e86b1b62bab44694355"
    }
}

{
    "m_SGVersion": 1,
    "m_Type": "UnityEditor.ShaderGraph.Internal.Vector2ShaderProperty",
    "m_ObjectId": "f1934156a3794a9ea641ad442d933447",
    "m_Guid": {
        "m_GuidSerialized": "f8c5d3dd-9050-48f8-8179-af3e74253b50"
    },
    "m_Name": "glyphPositionInAtlas",
    "m_DefaultRefNameVersion": 1,
    "m_RefNameGeneratedByDisplayName": "glyphPositionInAtlas",
    "m_DefaultReferenceName": "_glyphPositionInAtlas",
    "m_OverrideReferenceName": "",
    "m_GeneratePropertyBlock": true,
    "m_UseCustomSlotLabel": false,
    "m_CustomSlotLabel": "",
    "m_DismissedVersion": 0,
    "m_Precision": 0,
    "overrideHLSLDeclaration": false,
    "hlslDeclarationOverride": 0,
    "m_Hidden": false,
    "m_Value": {
        "x": 0.0,
        "y": 0.0,
        "z": 0.0,
        "w": 0.0
    }
}

{
    "m_SGVersion": 0,
    "m_Type": "UnityEditor.ShaderGraph.Vector1MaterialSlot",
    "m_ObjectId": "f34d4cebe33a427ca1e2c4c7de49daf3",
    "m_Id": 3,
    "m_DisplayName": "B",
    "m_SlotType": 1,
    "m_Hidden": false,
    "m_ShaderOutputName": "B",
    "m_StageCapability": 3,
    "m_Value": 0.0,
    "m_DefaultValue": 0.0,
    "m_Labels": []
}

{
    "m_SGVersion": 0,
    "m_Type": "UnityEditor.ShaderGraph.Texture2DInputMaterialSlot",
    "m_ObjectId": "f5ec605097894c179d0235ce0aad3aca",
    "m_Id": 1,
    "m_DisplayName": "Texture",
    "m_SlotType": 0,
    "m_Hidden": false,
    "m_ShaderOutputName": "Texture",
    "m_StageCapability": 3,
    "m_BareResource": false,
    "m_Texture": {
        "m_SerializedTexture": "{\"texture\":{\"instanceID\":0}}",
        "m_Guid": ""
    },
    "m_DefaultType": 0
}

{
    "m_SGVersion": 0,
    "m_Type": "UnityEditor.ShaderGraph.DynamicValueMaterialSlot",
    "m_ObjectId": "f8c9fc70eff84ec98e8f650b780b22e4",
    "m_Id": 2,
    "m_DisplayName": "Out",
    "m_SlotType": 1,
    "m_Hidden": false,
    "m_ShaderOutputName": "Out",
    "m_StageCapability": 3,
    "m_Value": {
        "e00": 0.0,
        "e01": 0.0,
        "e02": 0.0,
        "e03": 0.0,
        "e10": 0.0,
        "e11": 0.0,
        "e12": 0.0,
        "e13": 0.0,
        "e20": 0.0,
        "e21": 0.0,
        "e22": 0.0,
        "e23": 0.0,
        "e30": 0.0,
        "e31": 0.0,
        "e32": 0.0,
        "e33": 0.0
    },
    "m_DefaultValue": {
        "e00": 1.0,
        "e01": 0.0,
        "e02": 0.0,
        "e03": 0.0,
        "e10": 0.0,
        "e11": 1.0,
        "e12": 0.0,
        "e13": 0.0,
        "e20": 0.0,
        "e21": 0.0,
        "e22": 1.0,
        "e23": 0.0,
        "e30": 0.0,
        "e31": 0.0,
        "e32": 0.0,
        "e33": 1.0
    }
}

{
    "m_SGVersion": 0,
    "m_Type": "UnityEditor.ShaderGraph.Vector1MaterialSlot",
    "m_ObjectId": "fbc4ea15f9114308a5e323e2a76a3307",
    "m_Id": 2,
    "m_DisplayName": "G",
    "m_SlotType": 1,
    "m_Hidden": false,
    "m_ShaderOutputName": "G",
    "m_StageCapability": 3,
    "m_Value": 0.0,
    "m_DefaultValue": 0.0,
    "m_Labels": []
}

{
    "m_SGVersion": 0,
    "m_Type": "UnityEditor.ShaderGraph.Vector1MaterialSlot",
    "m_ObjectId": "fdf224fe0c9747d1839f1e8fa62f0c07",
    "m_Id": 6,
    "m_DisplayName": "B",
    "m_SlotType": 1,
    "m_Hidden": false,
    "m_ShaderOutputName": "B",
    "m_StageCapability": 2,
    "m_Value": 0.0,
    "m_DefaultValue": 0.0,
    "m_Labels": []
}

{
    "m_SGVersion": 1,
    "m_Type": "UnityEditor.ShaderGraph.Internal.Vector1ShaderProperty",
    "m_ObjectId": "fe4e85961d8e4576b8ec811e6b7515c5",
    "m_Guid": {
        "m_GuidSerialized": "7e25c00b-d185-4260-b935-353aede5d8ac"
    },
    "m_Name": "hardness",
    "m_DefaultRefNameVersion": 1,
    "m_RefNameGeneratedByDisplayName": "hardness",
    "m_DefaultReferenceName": "_hardness",
    "m_OverrideReferenceName": "",
    "m_GeneratePropertyBlock": true,
    "m_UseCustomSlotLabel": false,
    "m_CustomSlotLabel": "",
    "m_DismissedVersion": 0,
    "m_Precision": 0,
    "overrideHLSLDeclaration": false,
    "hlslDeclarationOverride": 0,
    "m_Hidden": false,
    "m_Value": 1.0,
    "m_FloatType": 0,
    "m_RangeValues": {
        "x": 0.0,
        "y": 1.0
    }
}

